2018-01-14 06:22:15,214 INFO  org.apache.flink.runtime.taskmanager.TaskManager              - --------------------------------------------------------------------------------
2018-01-14 06:22:15,216 INFO  org.apache.flink.runtime.taskmanager.TaskManager              -  Starting TaskManager (Version: 1.4.0, Rev:3a9d9f2, Date:06.12.2017 @ 11:08:40 UTC)
2018-01-14 06:22:15,216 INFO  org.apache.flink.runtime.taskmanager.TaskManager              -  OS current user: azureuser
2018-01-14 06:22:15,216 INFO  org.apache.flink.runtime.taskmanager.TaskManager              -  Current Hadoop/Kerberos user: <no hadoop dependency found>
2018-01-14 06:22:15,217 INFO  org.apache.flink.runtime.taskmanager.TaskManager              -  JVM: OpenJDK 64-Bit Server VM - Oracle Corporation - 1.8/25.151-b12
2018-01-14 06:22:15,217 INFO  org.apache.flink.runtime.taskmanager.TaskManager              -  Maximum heap size: 8096 MiBytes
2018-01-14 06:22:15,217 INFO  org.apache.flink.runtime.taskmanager.TaskManager              -  JAVA_HOME: /usr/lib/jvm/java-8-openjdk-amd64/
2018-01-14 06:22:15,218 INFO  org.apache.flink.runtime.taskmanager.TaskManager              -  No Hadoop Dependency available
2018-01-14 06:22:15,218 INFO  org.apache.flink.runtime.taskmanager.TaskManager              -  JVM Options:
2018-01-14 06:22:15,218 INFO  org.apache.flink.runtime.taskmanager.TaskManager              -     -XX:+UseG1GC
2018-01-14 06:22:15,218 INFO  org.apache.flink.runtime.taskmanager.TaskManager              -     -Xms8096M
2018-01-14 06:22:15,219 INFO  org.apache.flink.runtime.taskmanager.TaskManager              -     -Xmx8096M
2018-01-14 06:22:15,219 INFO  org.apache.flink.runtime.taskmanager.TaskManager              -     -XX:MaxDirectMemorySize=8388607T
2018-01-14 06:22:15,220 INFO  org.apache.flink.runtime.taskmanager.TaskManager              -     -Dlog.file=/home/azureuser/flink-1.4.0/log/flink-azureuser-taskmanager-0-SMART-F-Slave2.log
2018-01-14 06:22:15,220 INFO  org.apache.flink.runtime.taskmanager.TaskManager              -     -Dlog4j.configuration=file:/home/azureuser/flink-1.4.0/conf/log4j.properties
2018-01-14 06:22:15,220 INFO  org.apache.flink.runtime.taskmanager.TaskManager              -     -Dlogback.configurationFile=file:/home/azureuser/flink-1.4.0/conf/logback.xml
2018-01-14 06:22:15,220 INFO  org.apache.flink.runtime.taskmanager.TaskManager              -  Program Arguments:
2018-01-14 06:22:15,220 INFO  org.apache.flink.runtime.taskmanager.TaskManager              -     --configDir
2018-01-14 06:22:15,221 INFO  org.apache.flink.runtime.taskmanager.TaskManager              -     /home/azureuser/flink-1.4.0/conf
2018-01-14 06:22:15,221 INFO  org.apache.flink.runtime.taskmanager.TaskManager              -  Classpath: /home/azureuser/flink-1.4.0/lib/flink-python_2.11-1.4.0.jar:/home/azureuser/flink-1.4.0/lib/log4j-1.2.17.jar:/home/azureuser/flink-1.4.0/lib/slf4j-log4j12-1.7.7.jar:/home/azureuser/flink-1.4.0/lib/flink-dist_2.11-1.4.0.jar:::
2018-01-14 06:22:15,221 INFO  org.apache.flink.runtime.taskmanager.TaskManager              - --------------------------------------------------------------------------------
2018-01-14 06:22:15,223 INFO  org.apache.flink.runtime.taskmanager.TaskManager              - Registered UNIX signal handlers for [TERM, HUP, INT]
2018-01-14 06:22:15,231 INFO  org.apache.flink.runtime.taskmanager.TaskManager              - Maximum number of open file descriptors is 1048576
2018-01-14 06:22:15,266 INFO  org.apache.flink.runtime.taskmanager.TaskManager              - Loading configuration from /home/azureuser/flink-1.4.0/conf
2018-01-14 06:22:15,270 INFO  org.apache.flink.configuration.GlobalConfiguration            - Loading configuration property: jobmanager.rpc.address, SMART-F-Master
2018-01-14 06:22:15,270 INFO  org.apache.flink.configuration.GlobalConfiguration            - Loading configuration property: jobmanager.rpc.port, 6123
2018-01-14 06:22:15,270 INFO  org.apache.flink.configuration.GlobalConfiguration            - Loading configuration property: jobmanager.heap.mb, 2048
2018-01-14 06:22:15,271 INFO  org.apache.flink.configuration.GlobalConfiguration            - Loading configuration property: taskmanager.heap.mb, 8096
2018-01-14 06:22:15,271 INFO  org.apache.flink.configuration.GlobalConfiguration            - Loading configuration property: taskmanager.numberOfTaskSlots, 3
2018-01-14 06:22:15,271 INFO  org.apache.flink.configuration.GlobalConfiguration            - Loading configuration property: taskmanager.memory.preallocate, false
2018-01-14 06:22:15,271 INFO  org.apache.flink.configuration.GlobalConfiguration            - Loading configuration property: parallelism.default, 1
2018-01-14 06:22:15,272 INFO  org.apache.flink.configuration.GlobalConfiguration            - Loading configuration property: web.port, 8081
2018-01-14 06:22:15,273 INFO  org.apache.flink.configuration.GlobalConfiguration            - Loading configuration property: blob.server.port, 6124
2018-01-14 06:22:15,273 INFO  org.apache.flink.configuration.GlobalConfiguration            - Loading configuration property: query.server.port, 6125
2018-01-14 06:22:15,285 INFO  org.apache.flink.core.fs.FileSystem                           - Hadoop is not in the classpath/dependencies. The extended set of supported File Systems via Hadoop is not available.
2018-01-14 06:22:15,316 INFO  org.apache.flink.runtime.security.modules.HadoopModuleFactory  - Cannot create Hadoop Security Module because Hadoop cannot be found in the Classpath.
2018-01-14 06:22:15,366 INFO  org.apache.flink.runtime.security.SecurityUtils               - Cannot install HadoopSecurityContext because Hadoop cannot be found in the Classpath.
2018-01-14 06:22:15,424 INFO  org.apache.flink.runtime.util.LeaderRetrievalUtils            - Trying to select the network interface and address to use by connecting to the leading JobManager.
2018-01-14 06:22:15,425 INFO  org.apache.flink.runtime.util.LeaderRetrievalUtils            - TaskManager will try to connect for 10000 milliseconds before falling back to heuristics
2018-01-14 06:22:15,427 INFO  org.apache.flink.runtime.net.ConnectionUtils                  - Retrieved new target address SMART-F-Master/10.2.14.6:6123.
2018-01-14 06:22:15,886 INFO  org.apache.flink.runtime.net.ConnectionUtils                  - Trying to connect to address SMART-F-Master/10.2.14.6:6123
2018-01-14 06:22:15,889 INFO  org.apache.flink.runtime.net.ConnectionUtils                  - Failed to connect from address 'SMART-F-Slave2/10.2.14.8': Connection refused (Connection refused)
2018-01-14 06:22:15,891 INFO  org.apache.flink.runtime.net.ConnectionUtils                  - Failed to connect from address '/10.2.14.8': Connection refused (Connection refused)
2018-01-14 06:22:15,893 INFO  org.apache.flink.runtime.net.ConnectionUtils                  - Failed to connect from address '/172.17.0.1': Connection refused (Connection refused)
2018-01-14 06:22:15,894 INFO  org.apache.flink.runtime.net.ConnectionUtils                  - Failed to connect from address '/172.18.0.1': Connection refused (Connection refused)
2018-01-14 06:22:15,894 INFO  org.apache.flink.runtime.net.ConnectionUtils                  - Failed to connect from address '/fe80:0:0:0:20d:3aff:fe90:d181%eth0': Network is unreachable (connect failed)
2018-01-14 06:22:15,896 INFO  org.apache.flink.runtime.net.ConnectionUtils                  - Failed to connect from address '/10.2.14.8': Connection refused (Connection refused)
2018-01-14 06:22:15,896 INFO  org.apache.flink.runtime.net.ConnectionUtils                  - Failed to connect from address '/0:0:0:0:0:0:0:1%lo': Network is unreachable (connect failed)
2018-01-14 06:22:15,897 INFO  org.apache.flink.runtime.net.ConnectionUtils                  - Failed to connect from address '/127.0.0.1': Invalid argument (connect failed)
2018-01-14 06:22:15,903 INFO  org.apache.flink.runtime.net.ConnectionUtils                  - Failed to connect from address '/172.17.0.1': Connection refused (Connection refused)
2018-01-14 06:22:15,910 INFO  org.apache.flink.runtime.net.ConnectionUtils                  - Failed to connect from address '/172.18.0.1': Connection refused (Connection refused)
2018-01-14 06:22:15,911 INFO  org.apache.flink.runtime.net.ConnectionUtils                  - Failed to connect from address '/fe80:0:0:0:20d:3aff:fe90:d181%eth0': Network is unreachable (connect failed)
2018-01-14 06:22:15,912 INFO  org.apache.flink.runtime.net.ConnectionUtils                  - Failed to connect from address '/10.2.14.8': Connection refused (Connection refused)
2018-01-14 06:22:15,913 INFO  org.apache.flink.runtime.net.ConnectionUtils                  - Failed to connect from address '/0:0:0:0:0:0:0:1%lo': Network is unreachable (connect failed)
2018-01-14 06:22:15,913 INFO  org.apache.flink.runtime.net.ConnectionUtils                  - Failed to connect from address '/127.0.0.1': Invalid argument (connect failed)
2018-01-14 06:22:16,313 INFO  org.apache.flink.runtime.net.ConnectionUtils                  - Trying to connect to address SMART-F-Master/10.2.14.6:6123
2018-01-14 06:22:16,316 INFO  org.apache.flink.runtime.net.ConnectionUtils                  - Failed to connect from address 'SMART-F-Slave2/10.2.14.8': Connection refused (Connection refused)
2018-01-14 06:22:16,319 INFO  org.apache.flink.runtime.net.ConnectionUtils                  - Failed to connect from address '/10.2.14.8': Connection refused (Connection refused)
2018-01-14 06:22:16,326 INFO  org.apache.flink.runtime.net.ConnectionUtils                  - Failed to connect from address '/172.17.0.1': Connection refused (Connection refused)
2018-01-14 06:22:16,328 INFO  org.apache.flink.runtime.net.ConnectionUtils                  - Failed to connect from address '/172.18.0.1': Connection refused (Connection refused)
2018-01-14 06:22:16,329 INFO  org.apache.flink.runtime.net.ConnectionUtils                  - Failed to connect from address '/fe80:0:0:0:20d:3aff:fe90:d181%eth0': Network is unreachable (connect failed)
2018-01-14 06:22:16,331 INFO  org.apache.flink.runtime.net.ConnectionUtils                  - Failed to connect from address '/10.2.14.8': Connection refused (Connection refused)
2018-01-14 06:22:16,331 INFO  org.apache.flink.runtime.net.ConnectionUtils                  - Failed to connect from address '/0:0:0:0:0:0:0:1%lo': Network is unreachable (connect failed)
2018-01-14 06:22:16,331 INFO  org.apache.flink.runtime.net.ConnectionUtils                  - Failed to connect from address '/127.0.0.1': Invalid argument (connect failed)
2018-01-14 06:22:16,333 INFO  org.apache.flink.runtime.net.ConnectionUtils                  - Failed to connect from address '/172.17.0.1': Connection refused (Connection refused)
2018-01-14 06:22:16,335 INFO  org.apache.flink.runtime.net.ConnectionUtils                  - Failed to connect from address '/172.18.0.1': Connection refused (Connection refused)
2018-01-14 06:22:16,335 INFO  org.apache.flink.runtime.net.ConnectionUtils                  - Failed to connect from address '/fe80:0:0:0:20d:3aff:fe90:d181%eth0': Network is unreachable (connect failed)
2018-01-14 06:22:16,336 INFO  org.apache.flink.runtime.net.ConnectionUtils                  - Failed to connect from address '/10.2.14.8': Connection refused (Connection refused)
2018-01-14 06:22:16,337 INFO  org.apache.flink.runtime.net.ConnectionUtils                  - Failed to connect from address '/0:0:0:0:0:0:0:1%lo': Network is unreachable (connect failed)
2018-01-14 06:22:16,337 INFO  org.apache.flink.runtime.net.ConnectionUtils                  - Failed to connect from address '/127.0.0.1': Invalid argument (connect failed)
2018-01-14 06:22:17,137 INFO  org.apache.flink.runtime.net.ConnectionUtils                  - Trying to connect to address SMART-F-Master/10.2.14.6:6123
2018-01-14 06:22:17,147 INFO  org.apache.flink.runtime.taskmanager.TaskManager              - TaskManager will use hostname/address 'SMART-F-Slave2' (10.2.14.8) for communication.
2018-01-14 06:22:17,156 INFO  org.apache.flink.runtime.taskmanager.TaskManager              - Starting TaskManager
2018-01-14 06:22:17,157 INFO  org.apache.flink.runtime.taskmanager.TaskManager              - Starting TaskManager actor system at SMART-F-Slave2:34345.
2018-01-14 06:22:17,159 INFO  org.apache.flink.runtime.taskmanager.TaskManager              - Trying to start actor system at smart-f-slave2:34345
2018-01-14 06:22:17,871 INFO  akka.event.slf4j.Slf4jLogger                                  - Slf4jLogger started
2018-01-14 06:22:17,977 INFO  akka.remote.Remoting                                          - Starting remoting
2018-01-14 06:22:18,182 INFO  akka.remote.Remoting                                          - Remoting started; listening on addresses :[akka.tcp://flink@smart-f-slave2:34345]
2018-01-14 06:22:18,198 INFO  org.apache.flink.runtime.taskmanager.TaskManager              - Actor system started at akka.tcp://flink@smart-f-slave2:34345
2018-01-14 06:22:18,210 INFO  org.apache.flink.runtime.metrics.MetricRegistryImpl           - No metrics reporter configured, no metrics will be exposed/reported.
2018-01-14 06:22:18,215 INFO  org.apache.flink.runtime.taskmanager.TaskManager              - Starting TaskManager actor
2018-01-14 06:22:18,220 INFO  org.apache.flink.runtime.io.network.netty.NettyConfig         - NettyConfig [server address: SMART-F-Slave2/10.2.14.8, server port: 0, ssl enabled: false, memory segment size (bytes): 32768, transport type: NIO, number of server threads: 3 (manual), number of client threads: 3 (manual), server connect backlog: 0 (use Netty's default), client connect timeout (sec): 120, send/receive buffer size (bytes): 0 (use Netty's default)]
2018-01-14 06:22:18,225 INFO  org.apache.flink.runtime.taskexecutor.TaskManagerConfiguration  - Messages have a max timeout of 10000 ms
2018-01-14 06:22:18,230 INFO  org.apache.flink.runtime.taskexecutor.TaskManagerServices     - Temporary file directory '/tmp': total 29 GB, usable 25 GB (86,21% usable)
2018-01-14 06:22:18,783 INFO  org.apache.flink.runtime.io.network.buffer.NetworkBufferPool  - Allocated 808 MB for network buffer pool (number of memory segments: 25863, bytes per segment: 32768).
2018-01-14 06:22:18,925 WARN  org.apache.flink.runtime.query.QueryableStateUtils            - Could not load Queryable State Client Proxy. Probable reason: flink-queryable-state-runtime is not in the classpath. Please put the corresponding jar from the opt to the lib folder.
2018-01-14 06:22:18,927 WARN  org.apache.flink.runtime.query.QueryableStateUtils            - Could not load Queryable State Server. Probable reason: flink-queryable-state-runtime is not in the classpath. Please put the corresponding jar from the opt to the lib folder.
2018-01-14 06:22:18,928 INFO  org.apache.flink.runtime.io.network.NetworkEnvironment        - Starting the network environment and its components.
2018-01-14 06:22:18,980 INFO  org.apache.flink.runtime.io.network.netty.NettyClient         - Successful initialization (took 41 ms).
2018-01-14 06:22:19,066 INFO  org.apache.flink.runtime.io.network.netty.NettyServer         - Successful initialization (took 86 ms). Listening on SocketAddress /10.2.14.8:35603.
2018-01-14 06:22:19,070 WARN  org.apache.flink.runtime.taskmanager.TaskManagerLocation      - No hostname could be resolved for the IP address 10.2.14.8, using IP address as host name. Local input split assignment (such as for HDFS files) may be impacted.
2018-01-14 06:22:19,380 INFO  org.apache.flink.runtime.taskexecutor.TaskManagerServices     - Limiting managed memory to 0.7 of the currently free heap space (5095 MB), memory will be allocated lazily.
2018-01-14 06:22:19,387 INFO  org.apache.flink.runtime.io.disk.iomanager.IOManager          - I/O manager uses directory /tmp/flink-io-a1966ca4-becd-419d-b7ba-5f461dd7a362 for spill files.
2018-01-14 06:22:19,391 INFO  org.apache.flink.runtime.filecache.FileCache                  - User file cache uses directory /tmp/flink-dist-cache-84ab7127-281e-4334-ab2f-c5b2a0980c86
2018-01-14 06:22:19,519 INFO  org.apache.flink.runtime.filecache.FileCache                  - User file cache uses directory /tmp/flink-dist-cache-a4865d1d-0535-40be-8a58-f7f8bee7b7c7
2018-01-14 06:22:19,540 INFO  org.apache.flink.runtime.taskmanager.TaskManager              - Starting TaskManager actor at akka://flink/user/taskmanager#272493696.
2018-01-14 06:22:19,541 INFO  org.apache.flink.runtime.taskmanager.TaskManager              - TaskManager data connection information: af228090705bfd542290b9a25767d5c7 @ 10.2.14.8 (dataPort=35603)
2018-01-14 06:22:19,541 INFO  org.apache.flink.runtime.taskmanager.TaskManager              - TaskManager has 3 task slot(s).
2018-01-14 06:22:19,543 INFO  org.apache.flink.runtime.taskmanager.TaskManager              - Memory usage stats: [HEAP: 822/8096/8096 MB, NON HEAP: 30/30/-1 MB (used/committed/max)]
2018-01-14 06:22:19,549 INFO  org.apache.flink.runtime.taskmanager.TaskManager              - Trying to register at JobManager akka.tcp://flink@smart-f-master:6123/user/jobmanager (attempt 1, timeout: 500 milliseconds)
2018-01-14 06:22:20,075 INFO  org.apache.flink.runtime.taskmanager.TaskManager              - Trying to register at JobManager akka.tcp://flink@smart-f-master:6123/user/jobmanager (attempt 2, timeout: 1000 milliseconds)
2018-01-14 06:22:20,668 INFO  org.apache.flink.runtime.taskmanager.TaskManager              - Successful registration at JobManager (akka.tcp://flink@smart-f-master:6123/user/jobmanager), starting network stack and library cache.
2018-01-14 06:22:20,674 INFO  org.apache.flink.runtime.taskmanager.TaskManager              - Determined BLOB server address to be SMART-F-Master/10.2.14.6:6124. Starting BLOB cache.
2018-01-14 06:22:20,687 INFO  org.apache.flink.runtime.blob.PermanentBlobCache              - Created BLOB cache storage directory /tmp/blobStore-2ddf76dc-3119-4fa2-afb4-aa228fae876a
2018-01-14 06:22:20,691 INFO  org.apache.flink.runtime.blob.TransientBlobCache              - Created BLOB cache storage directory /tmp/blobStore-5361a7bb-5f06-48b0-944f-e5c1a4b3829b
2018-01-14 06:22:57,745 INFO  org.apache.flink.runtime.taskmanager.TaskManager              - Received task Source: Custom Source (1/8)
2018-01-14 06:22:57,746 INFO  org.apache.flink.runtime.taskmanager.Task                     - Source: Custom Source (1/8) (5b3978010a11e195609a66a1a472b9e6) switched from CREATED to DEPLOYING.
2018-01-14 06:22:57,747 INFO  org.apache.flink.runtime.taskmanager.Task                     - Creating FileSystem stream leak safety net for task Source: Custom Source (1/8) (5b3978010a11e195609a66a1a472b9e6) [DEPLOYING]
2018-01-14 06:22:57,756 INFO  org.apache.flink.runtime.taskmanager.Task                     - Loading JAR files for task Source: Custom Source (1/8) (5b3978010a11e195609a66a1a472b9e6) [DEPLOYING].
2018-01-14 06:22:57,760 INFO  org.apache.flink.runtime.blob.BlobClient                      - Downloading 03ad79c94d8b7754f43104da49a7d81e/p-d7c483ec02855e17dbcd175a66b99f5c4031bc53-6c9201a49e2179c6ec6afcdc1981d0eb from SMART-F-Master/10.2.14.6:6124
2018-01-14 06:22:57,764 INFO  org.apache.flink.runtime.taskmanager.TaskManager              - Received task Source: Custom Source (5/8)
2018-01-14 06:22:57,771 INFO  org.apache.flink.runtime.taskmanager.Task                     - Source: Custom Source (5/8) (065fb8191802de9389b77fe08d410f60) switched from CREATED to DEPLOYING.
2018-01-14 06:22:57,776 INFO  org.apache.flink.runtime.taskmanager.Task                     - Creating FileSystem stream leak safety net for task Source: Custom Source (5/8) (065fb8191802de9389b77fe08d410f60) [DEPLOYING]
2018-01-14 06:22:57,777 INFO  org.apache.flink.runtime.taskmanager.Task                     - Loading JAR files for task Source: Custom Source (5/8) (065fb8191802de9389b77fe08d410f60) [DEPLOYING].
2018-01-14 06:22:57,782 INFO  org.apache.flink.runtime.taskmanager.TaskManager              - Received task Source: Custom Source (8/8)
2018-01-14 06:22:57,789 INFO  org.apache.flink.runtime.taskmanager.Task                     - Source: Custom Source (8/8) (fd712a24f2cb8e9b1f5e5494bfd108d1) switched from CREATED to DEPLOYING.
2018-01-14 06:22:57,789 INFO  org.apache.flink.runtime.taskmanager.Task                     - Creating FileSystem stream leak safety net for task Source: Custom Source (8/8) (fd712a24f2cb8e9b1f5e5494bfd108d1) [DEPLOYING]
2018-01-14 06:22:57,789 INFO  org.apache.flink.runtime.taskmanager.Task                     - Loading JAR files for task Source: Custom Source (8/8) (fd712a24f2cb8e9b1f5e5494bfd108d1) [DEPLOYING].
2018-01-14 06:22:57,830 INFO  org.apache.flink.runtime.taskmanager.TaskManager              - Received task Flat Map (1/8)
2018-01-14 06:22:57,839 INFO  org.apache.flink.runtime.taskmanager.Task                     - Flat Map (1/8) (b7e99603cd6ac1fc44f88b822e9a1fcc) switched from CREATED to DEPLOYING.
2018-01-14 06:22:57,842 INFO  org.apache.flink.runtime.taskmanager.Task                     - Creating FileSystem stream leak safety net for task Flat Map (1/8) (b7e99603cd6ac1fc44f88b822e9a1fcc) [DEPLOYING]
2018-01-14 06:22:57,842 INFO  org.apache.flink.runtime.taskmanager.Task                     - Loading JAR files for task Flat Map (1/8) (b7e99603cd6ac1fc44f88b822e9a1fcc) [DEPLOYING].
2018-01-14 06:22:57,843 INFO  org.apache.flink.runtime.taskmanager.TaskManager              - Received task Flat Map (2/8)
2018-01-14 06:22:57,852 INFO  org.apache.flink.runtime.taskmanager.TaskManager              - Received task Flat Map (3/8)
2018-01-14 06:22:57,856 INFO  org.apache.flink.runtime.taskmanager.Task                     - Flat Map (3/8) (dbc5c030f0c550b8ba4bc4b460999620) switched from CREATED to DEPLOYING.
2018-01-14 06:22:57,858 INFO  org.apache.flink.runtime.taskmanager.Task                     - Creating FileSystem stream leak safety net for task Flat Map (3/8) (dbc5c030f0c550b8ba4bc4b460999620) [DEPLOYING]
2018-01-14 06:22:57,859 INFO  org.apache.flink.runtime.taskmanager.Task                     - Flat Map (2/8) (848a306cd8dc72a3fee123bf5ca9b723) switched from CREATED to DEPLOYING.
2018-01-14 06:22:57,859 INFO  org.apache.flink.runtime.taskmanager.Task                     - Loading JAR files for task Flat Map (3/8) (dbc5c030f0c550b8ba4bc4b460999620) [DEPLOYING].
2018-01-14 06:22:57,859 INFO  org.apache.flink.runtime.taskmanager.Task                     - Creating FileSystem stream leak safety net for task Flat Map (2/8) (848a306cd8dc72a3fee123bf5ca9b723) [DEPLOYING]
2018-01-14 06:22:57,860 INFO  org.apache.flink.runtime.taskmanager.Task                     - Loading JAR files for task Flat Map (2/8) (848a306cd8dc72a3fee123bf5ca9b723) [DEPLOYING].
2018-01-14 06:22:57,867 INFO  org.apache.flink.runtime.taskmanager.TaskManager              - Received task Keyed Reduce (1/8)
2018-01-14 06:22:57,869 INFO  org.apache.flink.runtime.taskmanager.Task                     - Keyed Reduce (1/8) (6d159cefcd4e5d33a3ba548d740c479c) switched from CREATED to DEPLOYING.
2018-01-14 06:22:57,870 INFO  org.apache.flink.runtime.taskmanager.Task                     - Creating FileSystem stream leak safety net for task Keyed Reduce (1/8) (6d159cefcd4e5d33a3ba548d740c479c) [DEPLOYING]
2018-01-14 06:22:57,870 INFO  org.apache.flink.runtime.taskmanager.Task                     - Loading JAR files for task Keyed Reduce (1/8) (6d159cefcd4e5d33a3ba548d740c479c) [DEPLOYING].
2018-01-14 06:22:57,905 INFO  org.apache.flink.runtime.taskmanager.TaskManager              - Received task Keyed Reduce (2/8)
2018-01-14 06:22:57,908 INFO  org.apache.flink.runtime.taskmanager.Task                     - Keyed Reduce (2/8) (b7f88770d07048dd68f5b30e04452c4c) switched from CREATED to DEPLOYING.
2018-01-14 06:22:57,913 INFO  org.apache.flink.runtime.taskmanager.Task                     - Creating FileSystem stream leak safety net for task Keyed Reduce (2/8) (b7f88770d07048dd68f5b30e04452c4c) [DEPLOYING]
2018-01-14 06:22:57,913 INFO  org.apache.flink.runtime.taskmanager.Task                     - Loading JAR files for task Keyed Reduce (2/8) (b7f88770d07048dd68f5b30e04452c4c) [DEPLOYING].
2018-01-14 06:22:57,946 INFO  org.apache.flink.runtime.taskmanager.TaskManager              - Received task Keyed Reduce (3/8)
2018-01-14 06:22:57,948 INFO  org.apache.flink.runtime.taskmanager.Task                     - Keyed Reduce (3/8) (0a426398a48cfcbd181897db87c4af14) switched from CREATED to DEPLOYING.
2018-01-14 06:22:57,948 INFO  org.apache.flink.runtime.taskmanager.Task                     - Creating FileSystem stream leak safety net for task Keyed Reduce (3/8) (0a426398a48cfcbd181897db87c4af14) [DEPLOYING]
2018-01-14 06:22:57,949 INFO  org.apache.flink.runtime.taskmanager.Task                     - Loading JAR files for task Keyed Reduce (3/8) (0a426398a48cfcbd181897db87c4af14) [DEPLOYING].
2018-01-14 06:22:57,952 INFO  org.apache.flink.runtime.taskmanager.TaskManager              - Received task Flat Map (1/1)
2018-01-14 06:22:57,953 INFO  org.apache.flink.runtime.taskmanager.Task                     - Flat Map (1/1) (d2e20dd630a46f7afa6738de5609766f) switched from CREATED to DEPLOYING.
2018-01-14 06:22:57,953 INFO  org.apache.flink.runtime.taskmanager.Task                     - Creating FileSystem stream leak safety net for task Flat Map (1/1) (d2e20dd630a46f7afa6738de5609766f) [DEPLOYING]
2018-01-14 06:22:57,953 INFO  org.apache.flink.runtime.taskmanager.Task                     - Loading JAR files for task Flat Map (1/1) (d2e20dd630a46f7afa6738de5609766f) [DEPLOYING].
2018-01-14 06:23:00,354 INFO  org.apache.flink.runtime.taskmanager.Task                     - Registering task at network: Flat Map (1/8) (b7e99603cd6ac1fc44f88b822e9a1fcc) [DEPLOYING].
2018-01-14 06:23:00,356 INFO  org.apache.flink.runtime.taskmanager.Task                     - Registering task at network: Flat Map (1/1) (d2e20dd630a46f7afa6738de5609766f) [DEPLOYING].
2018-01-14 06:23:00,356 INFO  org.apache.flink.runtime.taskmanager.Task                     - Registering task at network: Flat Map (2/8) (848a306cd8dc72a3fee123bf5ca9b723) [DEPLOYING].
2018-01-14 06:23:00,356 INFO  org.apache.flink.runtime.taskmanager.Task                     - Registering task at network: Keyed Reduce (1/8) (6d159cefcd4e5d33a3ba548d740c479c) [DEPLOYING].
2018-01-14 06:23:00,356 INFO  org.apache.flink.runtime.taskmanager.Task                     - Registering task at network: Keyed Reduce (3/8) (0a426398a48cfcbd181897db87c4af14) [DEPLOYING].
2018-01-14 06:23:00,357 INFO  org.apache.flink.runtime.taskmanager.Task                     - Registering task at network: Keyed Reduce (2/8) (b7f88770d07048dd68f5b30e04452c4c) [DEPLOYING].
2018-01-14 06:23:00,357 INFO  org.apache.flink.runtime.taskmanager.Task                     - Registering task at network: Flat Map (3/8) (dbc5c030f0c550b8ba4bc4b460999620) [DEPLOYING].
2018-01-14 06:23:00,357 INFO  org.apache.flink.runtime.taskmanager.Task                     - Registering task at network: Source: Custom Source (5/8) (065fb8191802de9389b77fe08d410f60) [DEPLOYING].
2018-01-14 06:23:00,357 INFO  org.apache.flink.runtime.taskmanager.Task                     - Registering task at network: Source: Custom Source (1/8) (5b3978010a11e195609a66a1a472b9e6) [DEPLOYING].
2018-01-14 06:23:00,357 INFO  org.apache.flink.runtime.taskmanager.Task                     - Registering task at network: Source: Custom Source (8/8) (fd712a24f2cb8e9b1f5e5494bfd108d1) [DEPLOYING].
2018-01-14 06:23:00,371 INFO  org.apache.flink.runtime.taskmanager.Task                     - Flat Map (1/1) (d2e20dd630a46f7afa6738de5609766f) switched from DEPLOYING to RUNNING.
2018-01-14 06:23:00,371 INFO  org.apache.flink.runtime.taskmanager.Task                     - Flat Map (2/8) (848a306cd8dc72a3fee123bf5ca9b723) switched from DEPLOYING to RUNNING.
2018-01-14 06:23:00,371 INFO  org.apache.flink.runtime.taskmanager.Task                     - Keyed Reduce (1/8) (6d159cefcd4e5d33a3ba548d740c479c) switched from DEPLOYING to RUNNING.
2018-01-14 06:23:00,371 INFO  org.apache.flink.runtime.taskmanager.Task                     - Keyed Reduce (3/8) (0a426398a48cfcbd181897db87c4af14) switched from DEPLOYING to RUNNING.
2018-01-14 06:23:00,372 INFO  org.apache.flink.runtime.taskmanager.Task                     - Source: Custom Source (5/8) (065fb8191802de9389b77fe08d410f60) switched from DEPLOYING to RUNNING.
2018-01-14 06:23:00,372 INFO  org.apache.flink.runtime.taskmanager.Task                     - Source: Custom Source (1/8) (5b3978010a11e195609a66a1a472b9e6) switched from DEPLOYING to RUNNING.
2018-01-14 06:23:00,377 INFO  org.apache.flink.runtime.taskmanager.Task                     - Source: Custom Source (8/8) (fd712a24f2cb8e9b1f5e5494bfd108d1) switched from DEPLOYING to RUNNING.
2018-01-14 06:23:00,375 INFO  org.apache.flink.runtime.taskmanager.Task                     - Keyed Reduce (2/8) (b7f88770d07048dd68f5b30e04452c4c) switched from DEPLOYING to RUNNING.
2018-01-14 06:23:00,374 INFO  org.apache.flink.runtime.taskmanager.Task                     - Flat Map (1/8) (b7e99603cd6ac1fc44f88b822e9a1fcc) switched from DEPLOYING to RUNNING.
2018-01-14 06:23:00,373 INFO  org.apache.flink.runtime.taskmanager.Task                     - Flat Map (3/8) (dbc5c030f0c550b8ba4bc4b460999620) switched from DEPLOYING to RUNNING.
2018-01-14 06:23:00,386 INFO  org.apache.flink.streaming.runtime.tasks.StreamTask           - No state backend has been configured, using default state backend (Memory / JobManager)
2018-01-14 06:23:00,386 INFO  org.apache.flink.streaming.runtime.tasks.StreamTask           - No state backend has been configured, using default state backend (Memory / JobManager)
2018-01-14 06:23:00,386 INFO  org.apache.flink.streaming.runtime.tasks.StreamTask           - No state backend has been configured, using default state backend (Memory / JobManager)
2018-01-14 06:23:00,386 INFO  org.apache.flink.streaming.runtime.tasks.StreamTask           - No state backend has been configured, using default state backend (Memory / JobManager)
2018-01-14 06:23:00,386 INFO  org.apache.flink.streaming.runtime.tasks.StreamTask           - No state backend has been configured, using default state backend (Memory / JobManager)
2018-01-14 06:23:00,386 INFO  org.apache.flink.streaming.runtime.tasks.StreamTask           - No state backend has been configured, using default state backend (Memory / JobManager)
2018-01-14 06:23:00,386 INFO  org.apache.flink.streaming.runtime.tasks.StreamTask           - No state backend has been configured, using default state backend (Memory / JobManager)
2018-01-14 06:23:00,386 INFO  org.apache.flink.streaming.runtime.tasks.StreamTask           - No state backend has been configured, using default state backend (Memory / JobManager)
2018-01-14 06:23:00,386 INFO  org.apache.flink.streaming.runtime.tasks.StreamTask           - No state backend has been configured, using default state backend (Memory / JobManager)
2018-01-14 06:23:00,386 INFO  org.apache.flink.streaming.runtime.tasks.StreamTask           - No state backend has been configured, using default state backend (Memory / JobManager)
2018-01-14 06:23:00,595 INFO  org.apache.flink.runtime.state.heap.HeapKeyedStateBackend     - Initializing heap keyed state backend with stream factory.
2018-01-14 06:23:00,596 INFO  org.apache.flink.runtime.state.heap.HeapKeyedStateBackend     - Initializing heap keyed state backend with stream factory.
2018-01-14 06:23:00,598 INFO  org.apache.flink.runtime.state.heap.HeapKeyedStateBackend     - Initializing heap keyed state backend with stream factory.
2018-01-14 06:23:00,686 INFO  org.apache.flink.api.java.typeutils.TypeExtractor             - class org.apache.flink.streaming.connectors.kafka.internals.KafkaTopicPartition does not contain a setter for field topic
2018-01-14 06:23:00,687 INFO  org.apache.flink.api.java.typeutils.TypeExtractor             - class org.apache.flink.streaming.connectors.kafka.internals.KafkaTopicPartition is not a valid POJO type because not all fields are valid POJO fields.
2018-01-14 06:23:00,687 INFO  org.apache.flink.api.java.typeutils.TypeExtractor             - class org.apache.flink.streaming.connectors.kafka.internals.KafkaTopicPartition does not contain a setter for field topic
2018-01-14 06:23:00,687 INFO  org.apache.flink.api.java.typeutils.TypeExtractor             - class org.apache.flink.streaming.connectors.kafka.internals.KafkaTopicPartition does not contain a setter for field topic
2018-01-14 06:23:00,693 INFO  org.apache.flink.api.java.typeutils.TypeExtractor             - class org.apache.flink.streaming.connectors.kafka.internals.KafkaTopicPartition is not a valid POJO type because not all fields are valid POJO fields.
2018-01-14 06:23:00,693 INFO  org.apache.flink.api.java.typeutils.TypeExtractor             - class org.apache.flink.streaming.connectors.kafka.internals.KafkaTopicPartition is not a valid POJO type because not all fields are valid POJO fields.
2018-01-14 06:23:00,712 INFO  org.apache.flink.streaming.connectors.kafka.FlinkKafkaConsumerBase  - No restore state for FlinkKafkaConsumer.
2018-01-14 06:23:00,718 INFO  org.apache.flink.streaming.connectors.kafka.FlinkKafkaConsumerBase  - No restore state for FlinkKafkaConsumer.
2018-01-14 06:23:00,727 INFO  org.apache.flink.streaming.connectors.kafka.FlinkKafkaConsumerBase  - No restore state for FlinkKafkaConsumer.
2018-01-14 06:23:00,759 INFO  org.apache.kafka.clients.consumer.ConsumerConfig              - ConsumerConfig values: 
	metric.reporters = []
	metadata.max.age.ms = 300000
	value.deserializer = class org.apache.kafka.common.serialization.ByteArrayDeserializer
	group.id = test-consumer-group
	partition.assignment.strategy = [org.apache.kafka.clients.consumer.RangeAssignor]
	reconnect.backoff.ms = 50
	sasl.kerberos.ticket.renew.window.factor = 0.8
	max.partition.fetch.bytes = 1048576
	bootstrap.servers = [52.170.213.47:9092, 40.71.203.196:9092]
	retry.backoff.ms = 100
	sasl.kerberos.kinit.cmd = /usr/bin/kinit
	sasl.kerberos.service.name = null
	sasl.kerberos.ticket.renew.jitter = 0.05
	ssl.keystore.type = JKS
	ssl.trustmanager.algorithm = PKIX
	enable.auto.commit = true
	ssl.key.password = null
	fetch.max.wait.ms = 500
	sasl.kerberos.min.time.before.relogin = 60000
	connections.max.idle.ms = 540000
	ssl.truststore.password = null
	session.timeout.ms = 30000
	metrics.num.samples = 2
	client.id = 
	ssl.endpoint.identification.algorithm = null
	key.deserializer = class org.apache.kafka.common.serialization.ByteArrayDeserializer
	ssl.protocol = TLS
	check.crcs = true
	request.timeout.ms = 40000
	ssl.provider = null
	ssl.enabled.protocols = [TLSv1.2, TLSv1.1, TLSv1]
	ssl.keystore.location = null
	heartbeat.interval.ms = 3000
	auto.commit.interval.ms = 5000
	receive.buffer.bytes = 32768
	ssl.cipher.suites = null
	ssl.truststore.type = JKS
	security.protocol = PLAINTEXT
	ssl.truststore.location = null
	ssl.keystore.password = null
	ssl.keymanager.algorithm = SunX509
	metrics.sample.window.ms = 30000
	fetch.min.bytes = 1024
	send.buffer.bytes = 131072
	auto.offset.reset = latest

2018-01-14 06:23:00,760 INFO  org.apache.kafka.clients.consumer.ConsumerConfig              - ConsumerConfig values: 
	metric.reporters = []
	metadata.max.age.ms = 300000
	value.deserializer = class org.apache.kafka.common.serialization.ByteArrayDeserializer
	group.id = test-consumer-group
	partition.assignment.strategy = [org.apache.kafka.clients.consumer.RangeAssignor]
	reconnect.backoff.ms = 50
	sasl.kerberos.ticket.renew.window.factor = 0.8
	max.partition.fetch.bytes = 1048576
	bootstrap.servers = [52.170.213.47:9092, 40.71.203.196:9092]
	retry.backoff.ms = 100
	sasl.kerberos.kinit.cmd = /usr/bin/kinit
	sasl.kerberos.service.name = null
	sasl.kerberos.ticket.renew.jitter = 0.05
	ssl.keystore.type = JKS
	ssl.trustmanager.algorithm = PKIX
	enable.auto.commit = true
	ssl.key.password = null
	fetch.max.wait.ms = 500
	sasl.kerberos.min.time.before.relogin = 60000
	connections.max.idle.ms = 540000
	ssl.truststore.password = null
	session.timeout.ms = 30000
	metrics.num.samples = 2
	client.id = 
	ssl.endpoint.identification.algorithm = null
	key.deserializer = class org.apache.kafka.common.serialization.ByteArrayDeserializer
	ssl.protocol = TLS
	check.crcs = true
	request.timeout.ms = 40000
	ssl.provider = null
	ssl.enabled.protocols = [TLSv1.2, TLSv1.1, TLSv1]
	ssl.keystore.location = null
	heartbeat.interval.ms = 3000
	auto.commit.interval.ms = 5000
	receive.buffer.bytes = 32768
	ssl.cipher.suites = null
	ssl.truststore.type = JKS
	security.protocol = PLAINTEXT
	ssl.truststore.location = null
	ssl.keystore.password = null
	ssl.keymanager.algorithm = SunX509
	metrics.sample.window.ms = 30000
	fetch.min.bytes = 1024
	send.buffer.bytes = 131072
	auto.offset.reset = latest

2018-01-14 06:23:00,761 INFO  org.apache.kafka.clients.consumer.ConsumerConfig              - ConsumerConfig values: 
	metric.reporters = []
	metadata.max.age.ms = 300000
	value.deserializer = class org.apache.kafka.common.serialization.ByteArrayDeserializer
	group.id = test-consumer-group
	partition.assignment.strategy = [org.apache.kafka.clients.consumer.RangeAssignor]
	reconnect.backoff.ms = 50
	sasl.kerberos.ticket.renew.window.factor = 0.8
	max.partition.fetch.bytes = 1048576
	bootstrap.servers = [52.170.213.47:9092, 40.71.203.196:9092]
	retry.backoff.ms = 100
	sasl.kerberos.kinit.cmd = /usr/bin/kinit
	sasl.kerberos.service.name = null
	sasl.kerberos.ticket.renew.jitter = 0.05
	ssl.keystore.type = JKS
	ssl.trustmanager.algorithm = PKIX
	enable.auto.commit = true
	ssl.key.password = null
	fetch.max.wait.ms = 500
	sasl.kerberos.min.time.before.relogin = 60000
	connections.max.idle.ms = 540000
	ssl.truststore.password = null
	session.timeout.ms = 30000
	metrics.num.samples = 2
	client.id = 
	ssl.endpoint.identification.algorithm = null
	key.deserializer = class org.apache.kafka.common.serialization.ByteArrayDeserializer
	ssl.protocol = TLS
	check.crcs = true
	request.timeout.ms = 40000
	ssl.provider = null
	ssl.enabled.protocols = [TLSv1.2, TLSv1.1, TLSv1]
	ssl.keystore.location = null
	heartbeat.interval.ms = 3000
	auto.commit.interval.ms = 5000
	receive.buffer.bytes = 32768
	ssl.cipher.suites = null
	ssl.truststore.type = JKS
	security.protocol = PLAINTEXT
	ssl.truststore.location = null
	ssl.keystore.password = null
	ssl.keymanager.algorithm = SunX509
	metrics.sample.window.ms = 30000
	fetch.min.bytes = 1024
	send.buffer.bytes = 131072
	auto.offset.reset = latest

2018-01-14 06:23:00,924 WARN  org.apache.kafka.clients.consumer.ConsumerConfig              - The configuration zookeeper.connect = 52.170.213.47:2181,40.71.203.196:2181 was supplied but isn't a known config.
2018-01-14 06:23:00,929 WARN  org.apache.kafka.clients.consumer.ConsumerConfig              - The configuration parallelism = 8 was supplied but isn't a known config.
2018-01-14 06:23:00,929 WARN  org.apache.kafka.clients.consumer.ConsumerConfig              - The configuration part = rebalance was supplied but isn't a known config.
2018-01-14 06:23:00,929 WARN  org.apache.kafka.clients.consumer.ConsumerConfig              - The configuration topic = smart was supplied but isn't a known config.
2018-01-14 06:23:00,927 WARN  org.apache.kafka.clients.consumer.ConsumerConfig              - The configuration zookeeper.connect = 52.170.213.47:2181,40.71.203.196:2181 was supplied but isn't a known config.
2018-01-14 06:23:00,925 WARN  org.apache.kafka.clients.consumer.ConsumerConfig              - The configuration zookeeper.connect = 52.170.213.47:2181,40.71.203.196:2181 was supplied but isn't a known config.
2018-01-14 06:23:00,930 WARN  org.apache.kafka.clients.consumer.ConsumerConfig              - The configuration parallelism = 8 was supplied but isn't a known config.
2018-01-14 06:23:00,930 WARN  org.apache.kafka.clients.consumer.ConsumerConfig              - The configuration part = rebalance was supplied but isn't a known config.
2018-01-14 06:23:00,930 WARN  org.apache.kafka.clients.consumer.ConsumerConfig              - The configuration topic = smart was supplied but isn't a known config.
2018-01-14 06:23:00,930 WARN  org.apache.kafka.clients.consumer.ConsumerConfig              - The configuration parallelism = 8 was supplied but isn't a known config.
2018-01-14 06:23:00,930 WARN  org.apache.kafka.clients.consumer.ConsumerConfig              - The configuration part = rebalance was supplied but isn't a known config.
2018-01-14 06:23:00,930 WARN  org.apache.kafka.clients.consumer.ConsumerConfig              - The configuration topic = smart was supplied but isn't a known config.
2018-01-14 06:23:00,933 INFO  org.apache.kafka.common.utils.AppInfoParser                   - Kafka version : 0.9.0.0
2018-01-14 06:23:00,933 INFO  org.apache.kafka.common.utils.AppInfoParser                   - Kafka commitId : fc7243c2af4b2b4a
2018-01-14 06:23:00,937 INFO  org.apache.kafka.common.utils.AppInfoParser                   - Kafka version : 0.9.0.0
2018-01-14 06:23:00,937 INFO  org.apache.kafka.common.utils.AppInfoParser                   - Kafka commitId : fc7243c2af4b2b4a
2018-01-14 06:23:00,938 INFO  org.apache.kafka.common.utils.AppInfoParser                   - Kafka version : 0.9.0.0
2018-01-14 06:23:00,938 INFO  org.apache.kafka.common.utils.AppInfoParser                   - Kafka commitId : fc7243c2af4b2b4a
2018-01-14 06:23:01,237 INFO  org.apache.flink.runtime.taskmanager.Task                     - Source: Custom Source (5/8) (065fb8191802de9389b77fe08d410f60) switched from RUNNING to FAILED.
java.lang.NullPointerException
	at org.apache.flink.streaming.connectors.kafka.internal.Kafka09PartitionDiscoverer.getAllPartitionsForTopics(Kafka09PartitionDiscoverer.java:75)
	at org.apache.flink.streaming.connectors.kafka.internals.AbstractPartitionDiscoverer.discoverPartitions(AbstractPartitionDiscoverer.java:128)
	at org.apache.flink.streaming.connectors.kafka.FlinkKafkaConsumerBase.open(FlinkKafkaConsumerBase.java:415)
	at org.apache.flink.api.common.functions.util.FunctionUtils.openFunction(FunctionUtils.java:36)
	at org.apache.flink.streaming.api.operators.AbstractUdfStreamOperator.open(AbstractUdfStreamOperator.java:102)
	at org.apache.flink.streaming.runtime.tasks.StreamTask.openAllOperators(StreamTask.java:393)
	at org.apache.flink.streaming.runtime.tasks.StreamTask.invoke(StreamTask.java:254)
	at org.apache.flink.runtime.taskmanager.Task.run(Task.java:718)
	at java.lang.Thread.run(Thread.java:748)
2018-01-14 06:23:01,250 INFO  org.apache.flink.runtime.taskmanager.Task                     - Freeing task resources for Source: Custom Source (5/8) (065fb8191802de9389b77fe08d410f60).
2018-01-14 06:23:01,290 INFO  org.apache.flink.runtime.taskmanager.Task                     - Ensuring all FileSystem streams are closed for task Source: Custom Source (5/8) (065fb8191802de9389b77fe08d410f60) [FAILED]
2018-01-14 06:23:01,292 INFO  org.apache.flink.runtime.taskmanager.TaskManager              - Un-registering task and sending final execution state FAILED to JobManager for task Source: Custom Source (065fb8191802de9389b77fe08d410f60)
2018-01-14 06:23:01,661 INFO  org.apache.flink.runtime.taskmanager.Task                     - Attempting to cancel task Source: Custom Source (1/8) (5b3978010a11e195609a66a1a472b9e6).
2018-01-14 06:23:01,661 INFO  org.apache.flink.runtime.taskmanager.Task                     - Source: Custom Source (1/8) (5b3978010a11e195609a66a1a472b9e6) switched from RUNNING to CANCELING.
2018-01-14 06:23:01,662 INFO  org.apache.flink.runtime.taskmanager.Task                     - Triggering cancellation of task code Source: Custom Source (1/8) (5b3978010a11e195609a66a1a472b9e6).
2018-01-14 06:23:01,708 INFO  org.apache.flink.runtime.taskmanager.TaskManager              - Discarding the results produced by task execution 065fb8191802de9389b77fe08d410f60
2018-01-14 06:23:01,709 INFO  org.apache.flink.runtime.taskmanager.Task                     - Attempting to cancel task Source: Custom Source (8/8) (fd712a24f2cb8e9b1f5e5494bfd108d1).
2018-01-14 06:23:01,709 INFO  org.apache.flink.runtime.taskmanager.Task                     - Source: Custom Source (8/8) (fd712a24f2cb8e9b1f5e5494bfd108d1) switched from RUNNING to CANCELING.
2018-01-14 06:23:01,711 INFO  org.apache.flink.runtime.taskmanager.Task                     - Triggering cancellation of task code Source: Custom Source (8/8) (fd712a24f2cb8e9b1f5e5494bfd108d1).
2018-01-14 06:23:01,715 INFO  org.apache.flink.runtime.taskmanager.Task                     - Attempting to cancel task Flat Map (1/8) (b7e99603cd6ac1fc44f88b822e9a1fcc).
2018-01-14 06:23:01,718 INFO  org.apache.flink.runtime.taskmanager.Task                     - Flat Map (1/8) (b7e99603cd6ac1fc44f88b822e9a1fcc) switched from RUNNING to CANCELING.
2018-01-14 06:23:01,718 INFO  org.apache.flink.runtime.taskmanager.Task                     - Triggering cancellation of task code Flat Map (1/8) (b7e99603cd6ac1fc44f88b822e9a1fcc).
2018-01-14 06:23:01,726 INFO  org.apache.flink.runtime.taskmanager.Task                     - Attempting to cancel task Flat Map (2/8) (848a306cd8dc72a3fee123bf5ca9b723).
2018-01-14 06:23:01,726 INFO  org.apache.flink.runtime.taskmanager.Task                     - Flat Map (2/8) (848a306cd8dc72a3fee123bf5ca9b723) switched from RUNNING to CANCELING.
2018-01-14 06:23:01,726 INFO  org.apache.flink.runtime.taskmanager.Task                     - Triggering cancellation of task code Flat Map (2/8) (848a306cd8dc72a3fee123bf5ca9b723).
2018-01-14 06:23:01,735 INFO  org.apache.flink.runtime.taskmanager.Task                     - Attempting to cancel task Flat Map (1/8) (b7e99603cd6ac1fc44f88b822e9a1fcc).
2018-01-14 06:23:01,743 INFO  org.apache.flink.runtime.taskmanager.Task                     - Task Flat Map (1/8) is already in state CANCELING
2018-01-14 06:23:01,743 INFO  org.apache.flink.runtime.taskmanager.Task                     - Attempting to cancel task Flat Map (2/8) (848a306cd8dc72a3fee123bf5ca9b723).
2018-01-14 06:23:01,743 INFO  org.apache.flink.runtime.taskmanager.Task                     - Task Flat Map (2/8) is already in state CANCELING
2018-01-14 06:23:01,743 INFO  org.apache.flink.runtime.taskmanager.Task                     - Attempting to cancel task Flat Map (3/8) (dbc5c030f0c550b8ba4bc4b460999620).
2018-01-14 06:23:01,743 INFO  org.apache.flink.runtime.taskmanager.Task                     - Flat Map (3/8) (dbc5c030f0c550b8ba4bc4b460999620) switched from RUNNING to CANCELING.
2018-01-14 06:23:01,744 INFO  org.apache.flink.runtime.taskmanager.Task                     - Triggering cancellation of task code Flat Map (3/8) (dbc5c030f0c550b8ba4bc4b460999620).
2018-01-14 06:23:01,753 INFO  org.apache.flink.runtime.taskmanager.Task                     - Flat Map (1/8) (b7e99603cd6ac1fc44f88b822e9a1fcc) switched from CANCELING to CANCELED.
2018-01-14 06:23:01,753 INFO  org.apache.flink.runtime.taskmanager.Task                     - Freeing task resources for Flat Map (1/8) (b7e99603cd6ac1fc44f88b822e9a1fcc).
2018-01-14 06:23:01,753 INFO  org.apache.flink.runtime.taskmanager.Task                     - Ensuring all FileSystem streams are closed for task Flat Map (1/8) (b7e99603cd6ac1fc44f88b822e9a1fcc) [CANCELED]
2018-01-14 06:23:01,775 INFO  org.apache.flink.runtime.taskmanager.Task                     - Attempting to cancel task Keyed Reduce (1/8) (6d159cefcd4e5d33a3ba548d740c479c).
2018-01-14 06:23:01,776 INFO  org.apache.flink.runtime.taskmanager.Task                     - Keyed Reduce (1/8) (6d159cefcd4e5d33a3ba548d740c479c) switched from RUNNING to CANCELING.
2018-01-14 06:23:01,776 INFO  org.apache.flink.runtime.taskmanager.Task                     - Triggering cancellation of task code Keyed Reduce (1/8) (6d159cefcd4e5d33a3ba548d740c479c).
2018-01-14 06:23:01,778 INFO  org.apache.flink.runtime.taskmanager.Task                     - Attempting to cancel task Keyed Reduce (2/8) (b7f88770d07048dd68f5b30e04452c4c).
2018-01-14 06:23:01,779 INFO  org.apache.flink.runtime.taskmanager.Task                     - Keyed Reduce (2/8) (b7f88770d07048dd68f5b30e04452c4c) switched from RUNNING to CANCELING.
2018-01-14 06:23:01,779 INFO  org.apache.flink.runtime.taskmanager.Task                     - Triggering cancellation of task code Keyed Reduce (2/8) (b7f88770d07048dd68f5b30e04452c4c).
2018-01-14 06:23:01,791 INFO  org.apache.flink.runtime.taskmanager.Task                     - Attempting to cancel task Keyed Reduce (3/8) (0a426398a48cfcbd181897db87c4af14).
2018-01-14 06:23:01,791 INFO  org.apache.flink.runtime.taskmanager.Task                     - Keyed Reduce (3/8) (0a426398a48cfcbd181897db87c4af14) switched from RUNNING to CANCELING.
2018-01-14 06:23:01,791 INFO  org.apache.flink.runtime.taskmanager.Task                     - Triggering cancellation of task code Keyed Reduce (3/8) (0a426398a48cfcbd181897db87c4af14).
2018-01-14 06:23:01,794 INFO  org.apache.flink.runtime.taskmanager.Task                     - Attempting to cancel task Flat Map (1/1) (d2e20dd630a46f7afa6738de5609766f).
2018-01-14 06:23:01,794 INFO  org.apache.flink.runtime.taskmanager.Task                     - Flat Map (1/1) (d2e20dd630a46f7afa6738de5609766f) switched from RUNNING to CANCELING.
2018-01-14 06:23:01,795 INFO  org.apache.flink.runtime.taskmanager.Task                     - Triggering cancellation of task code Flat Map (1/1) (d2e20dd630a46f7afa6738de5609766f).
2018-01-14 06:23:01,828 INFO  org.apache.flink.runtime.taskmanager.Task                     - Flat Map (2/8) (848a306cd8dc72a3fee123bf5ca9b723) switched from CANCELING to CANCELED.
2018-01-14 06:23:01,828 INFO  org.apache.flink.runtime.taskmanager.Task                     - Freeing task resources for Flat Map (2/8) (848a306cd8dc72a3fee123bf5ca9b723).
2018-01-14 06:23:01,828 INFO  org.apache.flink.runtime.taskmanager.Task                     - Flat Map (3/8) (dbc5c030f0c550b8ba4bc4b460999620) switched from CANCELING to CANCELED.
2018-01-14 06:23:01,828 INFO  org.apache.flink.runtime.taskmanager.Task                     - Freeing task resources for Flat Map (3/8) (dbc5c030f0c550b8ba4bc4b460999620).
2018-01-14 06:23:01,829 INFO  org.apache.flink.runtime.taskmanager.Task                     - Ensuring all FileSystem streams are closed for task Flat Map (2/8) (848a306cd8dc72a3fee123bf5ca9b723) [CANCELED]
2018-01-14 06:23:01,830 INFO  org.apache.flink.runtime.taskmanager.Task                     - Keyed Reduce (3/8) (0a426398a48cfcbd181897db87c4af14) switched from CANCELING to CANCELED.
2018-01-14 06:23:01,830 INFO  org.apache.flink.runtime.taskmanager.Task                     - Freeing task resources for Keyed Reduce (3/8) (0a426398a48cfcbd181897db87c4af14).
2018-01-14 06:23:01,830 INFO  org.apache.flink.runtime.taskmanager.Task                     - Ensuring all FileSystem streams are closed for task Keyed Reduce (3/8) (0a426398a48cfcbd181897db87c4af14) [CANCELED]
2018-01-14 06:23:01,832 INFO  org.apache.flink.runtime.taskmanager.Task                     - Keyed Reduce (2/8) (b7f88770d07048dd68f5b30e04452c4c) switched from CANCELING to CANCELED.
2018-01-14 06:23:01,832 INFO  org.apache.flink.runtime.taskmanager.Task                     - Freeing task resources for Keyed Reduce (2/8) (b7f88770d07048dd68f5b30e04452c4c).
2018-01-14 06:23:01,841 INFO  org.apache.flink.runtime.taskmanager.TaskManager              - Un-registering task and sending final execution state CANCELED to JobManager for task Flat Map (b7e99603cd6ac1fc44f88b822e9a1fcc)
2018-01-14 06:23:01,842 INFO  org.apache.flink.runtime.taskmanager.TaskManager              - Un-registering task and sending final execution state CANCELED to JobManager for task Flat Map (848a306cd8dc72a3fee123bf5ca9b723)
2018-01-14 06:23:01,842 INFO  org.apache.flink.runtime.taskmanager.TaskManager              - Un-registering task and sending final execution state CANCELED to JobManager for task Keyed Reduce (0a426398a48cfcbd181897db87c4af14)
2018-01-14 06:23:01,848 INFO  org.apache.flink.runtime.taskmanager.Task                     - Ensuring all FileSystem streams are closed for task Flat Map (3/8) (dbc5c030f0c550b8ba4bc4b460999620) [CANCELED]
2018-01-14 06:23:01,859 INFO  org.apache.flink.runtime.taskmanager.Task                     - Ensuring all FileSystem streams are closed for task Keyed Reduce (2/8) (b7f88770d07048dd68f5b30e04452c4c) [CANCELED]
2018-01-14 06:23:01,859 INFO  org.apache.flink.runtime.taskmanager.TaskManager              - Un-registering task and sending final execution state CANCELED to JobManager for task Flat Map (dbc5c030f0c550b8ba4bc4b460999620)
2018-01-14 06:23:01,859 INFO  org.apache.flink.runtime.taskmanager.Task                     - Keyed Reduce (1/8) (6d159cefcd4e5d33a3ba548d740c479c) switched from CANCELING to CANCELED.
2018-01-14 06:23:01,860 INFO  org.apache.flink.runtime.taskmanager.Task                     - Freeing task resources for Keyed Reduce (1/8) (6d159cefcd4e5d33a3ba548d740c479c).
2018-01-14 06:23:01,860 INFO  org.apache.flink.runtime.taskmanager.TaskManager              - Un-registering task and sending final execution state CANCELED to JobManager for task Keyed Reduce (b7f88770d07048dd68f5b30e04452c4c)
2018-01-14 06:23:01,860 INFO  org.apache.flink.runtime.taskmanager.Task                     - Ensuring all FileSystem streams are closed for task Keyed Reduce (1/8) (6d159cefcd4e5d33a3ba548d740c479c) [CANCELED]
2018-01-14 06:23:01,860 INFO  org.apache.flink.runtime.taskmanager.TaskManager              - Un-registering task and sending final execution state CANCELED to JobManager for task Keyed Reduce (6d159cefcd4e5d33a3ba548d740c479c)
2018-01-14 06:23:01,860 INFO  org.apache.flink.runtime.taskmanager.Task                     - Flat Map (1/1) (d2e20dd630a46f7afa6738de5609766f) switched from CANCELING to CANCELED.
2018-01-14 06:23:01,864 INFO  org.apache.flink.runtime.taskmanager.Task                     - Freeing task resources for Flat Map (1/1) (d2e20dd630a46f7afa6738de5609766f).
2018-01-14 06:23:01,864 INFO  org.apache.flink.runtime.taskmanager.Task                     - Ensuring all FileSystem streams are closed for task Flat Map (1/1) (d2e20dd630a46f7afa6738de5609766f) [CANCELED]
2018-01-14 06:23:01,864 INFO  org.apache.flink.runtime.taskmanager.TaskManager              - Un-registering task and sending final execution state CANCELED to JobManager for task Flat Map (d2e20dd630a46f7afa6738de5609766f)
2018-01-14 06:23:31,669 WARN  org.apache.flink.runtime.taskmanager.Task                     - Task 'Source: Custom Source (1/8)' did not react to cancelling signal, but is stuck in method:
 sun.nio.ch.EPollArrayWrapper.epollWait(Native Method)
sun.nio.ch.EPollArrayWrapper.poll(EPollArrayWrapper.java:269)
sun.nio.ch.EPollSelectorImpl.doSelect(EPollSelectorImpl.java:93)
sun.nio.ch.SelectorImpl.lockAndDoSelect(SelectorImpl.java:86)
sun.nio.ch.SelectorImpl.select(SelectorImpl.java:97)
org.apache.kafka.common.network.Selector.select(Selector.java:425)
org.apache.kafka.common.network.Selector.poll(Selector.java:254)
org.apache.kafka.clients.NetworkClient.poll(NetworkClient.java:270)
org.apache.kafka.clients.consumer.internals.ConsumerNetworkClient.clientPoll(ConsumerNetworkClient.java:303)
org.apache.kafka.clients.consumer.internals.ConsumerNetworkClient.poll(ConsumerNetworkClient.java:197)
org.apache.kafka.clients.consumer.internals.ConsumerNetworkClient.poll(ConsumerNetworkClient.java:187)
org.apache.kafka.clients.consumer.internals.ConsumerNetworkClient.poll(ConsumerNetworkClient.java:157)
org.apache.kafka.clients.consumer.internals.Fetcher.getTopicMetadata(Fetcher.java:200)
org.apache.kafka.clients.consumer.KafkaConsumer.partitionsFor(KafkaConsumer.java:1143)
org.apache.flink.streaming.connectors.kafka.internal.Kafka09PartitionDiscoverer.getAllPartitionsForTopics(Kafka09PartitionDiscoverer.java:75)
org.apache.flink.streaming.connectors.kafka.internals.AbstractPartitionDiscoverer.discoverPartitions(AbstractPartitionDiscoverer.java:128)
org.apache.flink.streaming.connectors.kafka.FlinkKafkaConsumerBase.open(FlinkKafkaConsumerBase.java:415)
org.apache.flink.api.common.functions.util.FunctionUtils.openFunction(FunctionUtils.java:36)
org.apache.flink.streaming.api.operators.AbstractUdfStreamOperator.open(AbstractUdfStreamOperator.java:102)
org.apache.flink.streaming.runtime.tasks.StreamTask.openAllOperators(StreamTask.java:393)
org.apache.flink.streaming.runtime.tasks.StreamTask.invoke(StreamTask.java:254)
org.apache.flink.runtime.taskmanager.Task.run(Task.java:718)
java.lang.Thread.run(Thread.java:748)

2018-01-14 06:23:31,721 WARN  org.apache.flink.runtime.taskmanager.Task                     - Task 'Source: Custom Source (8/8)' did not react to cancelling signal, but is stuck in method:
 sun.nio.ch.EPollArrayWrapper.interrupt(Native Method)
sun.nio.ch.EPollArrayWrapper.interrupt(EPollArrayWrapper.java:317)
sun.nio.ch.EPollSelectorImpl.wakeup(EPollSelectorImpl.java:207)
java.nio.channels.spi.AbstractSelector$1.interrupt(AbstractSelector.java:213)
java.nio.channels.spi.AbstractSelector.begin(AbstractSelector.java:219)
sun.nio.ch.EPollSelectorImpl.doSelect(EPollSelectorImpl.java:92)
sun.nio.ch.SelectorImpl.lockAndDoSelect(SelectorImpl.java:86)
sun.nio.ch.SelectorImpl.select(SelectorImpl.java:97)
org.apache.kafka.common.network.Selector.select(Selector.java:425)
org.apache.kafka.common.network.Selector.poll(Selector.java:254)
org.apache.kafka.clients.NetworkClient.poll(NetworkClient.java:270)
org.apache.kafka.clients.consumer.internals.ConsumerNetworkClient.clientPoll(ConsumerNetworkClient.java:303)
org.apache.kafka.clients.consumer.internals.ConsumerNetworkClient.poll(ConsumerNetworkClient.java:197)
org.apache.kafka.clients.consumer.internals.ConsumerNetworkClient.poll(ConsumerNetworkClient.java:187)
org.apache.kafka.clients.consumer.internals.ConsumerNetworkClient.poll(ConsumerNetworkClient.java:157)
org.apache.kafka.clients.consumer.internals.Fetcher.getTopicMetadata(Fetcher.java:200)
org.apache.kafka.clients.consumer.KafkaConsumer.partitionsFor(KafkaConsumer.java:1143)
org.apache.flink.streaming.connectors.kafka.internal.Kafka09PartitionDiscoverer.getAllPartitionsForTopics(Kafka09PartitionDiscoverer.java:75)
org.apache.flink.streaming.connectors.kafka.internals.AbstractPartitionDiscoverer.discoverPartitions(AbstractPartitionDiscoverer.java:128)
org.apache.flink.streaming.connectors.kafka.FlinkKafkaConsumerBase.open(FlinkKafkaConsumerBase.java:415)
org.apache.flink.api.common.functions.util.FunctionUtils.openFunction(FunctionUtils.java:36)
org.apache.flink.streaming.api.operators.AbstractUdfStreamOperator.open(AbstractUdfStreamOperator.java:102)
org.apache.flink.streaming.runtime.tasks.StreamTask.openAllOperators(StreamTask.java:393)
org.apache.flink.streaming.runtime.tasks.StreamTask.invoke(StreamTask.java:254)
org.apache.flink.runtime.taskmanager.Task.run(Task.java:718)
java.lang.Thread.run(Thread.java:748)

2018-01-14 06:24:01,670 WARN  org.apache.flink.runtime.taskmanager.Task                     - Task 'Source: Custom Source (1/8)' did not react to cancelling signal, but is stuck in method:
 sun.nio.ch.EPollArrayWrapper.epollWait(Native Method)
sun.nio.ch.EPollArrayWrapper.poll(EPollArrayWrapper.java:269)
sun.nio.ch.EPollSelectorImpl.doSelect(EPollSelectorImpl.java:93)
sun.nio.ch.SelectorImpl.lockAndDoSelect(SelectorImpl.java:86)
sun.nio.ch.SelectorImpl.select(SelectorImpl.java:97)
org.apache.kafka.common.network.Selector.select(Selector.java:425)
org.apache.kafka.common.network.Selector.poll(Selector.java:254)
org.apache.kafka.clients.NetworkClient.poll(NetworkClient.java:270)
org.apache.kafka.clients.consumer.internals.ConsumerNetworkClient.clientPoll(ConsumerNetworkClient.java:303)
org.apache.kafka.clients.consumer.internals.ConsumerNetworkClient.poll(ConsumerNetworkClient.java:197)
org.apache.kafka.clients.consumer.internals.ConsumerNetworkClient.poll(ConsumerNetworkClient.java:187)
org.apache.kafka.clients.consumer.internals.ConsumerNetworkClient.poll(ConsumerNetworkClient.java:157)
org.apache.kafka.clients.consumer.internals.Fetcher.getTopicMetadata(Fetcher.java:200)
org.apache.kafka.clients.consumer.KafkaConsumer.partitionsFor(KafkaConsumer.java:1143)
org.apache.flink.streaming.connectors.kafka.internal.Kafka09PartitionDiscoverer.getAllPartitionsForTopics(Kafka09PartitionDiscoverer.java:75)
org.apache.flink.streaming.connectors.kafka.internals.AbstractPartitionDiscoverer.discoverPartitions(AbstractPartitionDiscoverer.java:128)
org.apache.flink.streaming.connectors.kafka.FlinkKafkaConsumerBase.open(FlinkKafkaConsumerBase.java:415)
org.apache.flink.api.common.functions.util.FunctionUtils.openFunction(FunctionUtils.java:36)
org.apache.flink.streaming.api.operators.AbstractUdfStreamOperator.open(AbstractUdfStreamOperator.java:102)
org.apache.flink.streaming.runtime.tasks.StreamTask.openAllOperators(StreamTask.java:393)
org.apache.flink.streaming.runtime.tasks.StreamTask.invoke(StreamTask.java:254)
org.apache.flink.runtime.taskmanager.Task.run(Task.java:718)
java.lang.Thread.run(Thread.java:748)

2018-01-14 06:24:01,723 WARN  org.apache.flink.runtime.taskmanager.Task                     - Task 'Source: Custom Source (8/8)' did not react to cancelling signal, but is stuck in method:
 sun.nio.ch.IOUtil.drain(Native Method)
sun.nio.ch.EPollSelectorImpl.doSelect(EPollSelectorImpl.java:104)
sun.nio.ch.SelectorImpl.lockAndDoSelect(SelectorImpl.java:86)
sun.nio.ch.SelectorImpl.select(SelectorImpl.java:97)
org.apache.kafka.common.network.Selector.select(Selector.java:425)
org.apache.kafka.common.network.Selector.poll(Selector.java:254)
org.apache.kafka.clients.NetworkClient.poll(NetworkClient.java:270)
org.apache.kafka.clients.consumer.internals.ConsumerNetworkClient.clientPoll(ConsumerNetworkClient.java:303)
org.apache.kafka.clients.consumer.internals.ConsumerNetworkClient.poll(ConsumerNetworkClient.java:197)
org.apache.kafka.clients.consumer.internals.ConsumerNetworkClient.poll(ConsumerNetworkClient.java:187)
org.apache.kafka.clients.consumer.internals.ConsumerNetworkClient.poll(ConsumerNetworkClient.java:157)
org.apache.kafka.clients.consumer.internals.Fetcher.getTopicMetadata(Fetcher.java:200)
org.apache.kafka.clients.consumer.KafkaConsumer.partitionsFor(KafkaConsumer.java:1143)
org.apache.flink.streaming.connectors.kafka.internal.Kafka09PartitionDiscoverer.getAllPartitionsForTopics(Kafka09PartitionDiscoverer.java:75)
org.apache.flink.streaming.connectors.kafka.internals.AbstractPartitionDiscoverer.discoverPartitions(AbstractPartitionDiscoverer.java:128)
org.apache.flink.streaming.connectors.kafka.FlinkKafkaConsumerBase.open(FlinkKafkaConsumerBase.java:415)
org.apache.flink.api.common.functions.util.FunctionUtils.openFunction(FunctionUtils.java:36)
org.apache.flink.streaming.api.operators.AbstractUdfStreamOperator.open(AbstractUdfStreamOperator.java:102)
org.apache.flink.streaming.runtime.tasks.StreamTask.openAllOperators(StreamTask.java:393)
org.apache.flink.streaming.runtime.tasks.StreamTask.invoke(StreamTask.java:254)
org.apache.flink.runtime.taskmanager.Task.run(Task.java:718)
java.lang.Thread.run(Thread.java:748)

2018-01-14 06:24:31,675 WARN  org.apache.flink.runtime.taskmanager.Task                     - Task 'Source: Custom Source (1/8)' did not react to cancelling signal, but is stuck in method:
 sun.nio.ch.IOUtil.drain(Native Method)
sun.nio.ch.EPollSelectorImpl.doSelect(EPollSelectorImpl.java:104)
sun.nio.ch.SelectorImpl.lockAndDoSelect(SelectorImpl.java:86)
sun.nio.ch.SelectorImpl.select(SelectorImpl.java:97)
org.apache.kafka.common.network.Selector.select(Selector.java:425)
org.apache.kafka.common.network.Selector.poll(Selector.java:254)
org.apache.kafka.clients.NetworkClient.poll(NetworkClient.java:270)
org.apache.kafka.clients.consumer.internals.ConsumerNetworkClient.clientPoll(ConsumerNetworkClient.java:303)
org.apache.kafka.clients.consumer.internals.ConsumerNetworkClient.poll(ConsumerNetworkClient.java:197)
org.apache.kafka.clients.consumer.internals.ConsumerNetworkClient.poll(ConsumerNetworkClient.java:187)
org.apache.kafka.clients.consumer.internals.ConsumerNetworkClient.poll(ConsumerNetworkClient.java:157)
org.apache.kafka.clients.consumer.internals.Fetcher.getTopicMetadata(Fetcher.java:200)
org.apache.kafka.clients.consumer.KafkaConsumer.partitionsFor(KafkaConsumer.java:1143)
org.apache.flink.streaming.connectors.kafka.internal.Kafka09PartitionDiscoverer.getAllPartitionsForTopics(Kafka09PartitionDiscoverer.java:75)
org.apache.flink.streaming.connectors.kafka.internals.AbstractPartitionDiscoverer.discoverPartitions(AbstractPartitionDiscoverer.java:128)
org.apache.flink.streaming.connectors.kafka.FlinkKafkaConsumerBase.open(FlinkKafkaConsumerBase.java:415)
org.apache.flink.api.common.functions.util.FunctionUtils.openFunction(FunctionUtils.java:36)
org.apache.flink.streaming.api.operators.AbstractUdfStreamOperator.open(AbstractUdfStreamOperator.java:102)
org.apache.flink.streaming.runtime.tasks.StreamTask.openAllOperators(StreamTask.java:393)
org.apache.flink.streaming.runtime.tasks.StreamTask.invoke(StreamTask.java:254)
org.apache.flink.runtime.taskmanager.Task.run(Task.java:718)
java.lang.Thread.run(Thread.java:748)

2018-01-14 06:24:31,727 WARN  org.apache.flink.runtime.taskmanager.Task                     - Task 'Source: Custom Source (8/8)' did not react to cancelling signal, but is stuck in method:
 org.apache.kafka.common.network.Selector.poll(Selector.java:249)
org.apache.kafka.clients.NetworkClient.poll(NetworkClient.java:270)
org.apache.kafka.clients.consumer.internals.ConsumerNetworkClient.clientPoll(ConsumerNetworkClient.java:303)
org.apache.kafka.clients.consumer.internals.ConsumerNetworkClient.poll(ConsumerNetworkClient.java:197)
org.apache.kafka.clients.consumer.internals.ConsumerNetworkClient.poll(ConsumerNetworkClient.java:187)
org.apache.kafka.clients.consumer.internals.ConsumerNetworkClient.poll(ConsumerNetworkClient.java:157)
org.apache.kafka.clients.consumer.internals.Fetcher.getTopicMetadata(Fetcher.java:200)
org.apache.kafka.clients.consumer.KafkaConsumer.partitionsFor(KafkaConsumer.java:1143)
org.apache.flink.streaming.connectors.kafka.internal.Kafka09PartitionDiscoverer.getAllPartitionsForTopics(Kafka09PartitionDiscoverer.java:75)
org.apache.flink.streaming.connectors.kafka.internals.AbstractPartitionDiscoverer.discoverPartitions(AbstractPartitionDiscoverer.java:128)
org.apache.flink.streaming.connectors.kafka.FlinkKafkaConsumerBase.open(FlinkKafkaConsumerBase.java:415)
org.apache.flink.api.common.functions.util.FunctionUtils.openFunction(FunctionUtils.java:36)
org.apache.flink.streaming.api.operators.AbstractUdfStreamOperator.open(AbstractUdfStreamOperator.java:102)
org.apache.flink.streaming.runtime.tasks.StreamTask.openAllOperators(StreamTask.java:393)
org.apache.flink.streaming.runtime.tasks.StreamTask.invoke(StreamTask.java:254)
org.apache.flink.runtime.taskmanager.Task.run(Task.java:718)
java.lang.Thread.run(Thread.java:748)

2018-01-14 06:25:01,679 WARN  org.apache.flink.runtime.taskmanager.Task                     - Task 'Source: Custom Source (1/8)' did not react to cancelling signal, but is stuck in method:
 sun.nio.ch.EPollArrayWrapper.interrupt(Native Method)
sun.nio.ch.EPollArrayWrapper.interrupt(EPollArrayWrapper.java:317)
sun.nio.ch.EPollSelectorImpl.wakeup(EPollSelectorImpl.java:207)
java.nio.channels.spi.AbstractSelector$1.interrupt(AbstractSelector.java:213)
java.nio.channels.spi.AbstractSelector.begin(AbstractSelector.java:219)
sun.nio.ch.EPollSelectorImpl.doSelect(EPollSelectorImpl.java:92)
sun.nio.ch.SelectorImpl.lockAndDoSelect(SelectorImpl.java:86)
sun.nio.ch.SelectorImpl.select(SelectorImpl.java:97)
org.apache.kafka.common.network.Selector.select(Selector.java:425)
org.apache.kafka.common.network.Selector.poll(Selector.java:254)
org.apache.kafka.clients.NetworkClient.poll(NetworkClient.java:270)
org.apache.kafka.clients.consumer.internals.ConsumerNetworkClient.clientPoll(ConsumerNetworkClient.java:303)
org.apache.kafka.clients.consumer.internals.ConsumerNetworkClient.poll(ConsumerNetworkClient.java:197)
org.apache.kafka.clients.consumer.internals.ConsumerNetworkClient.poll(ConsumerNetworkClient.java:187)
org.apache.kafka.clients.consumer.internals.ConsumerNetworkClient.poll(ConsumerNetworkClient.java:157)
org.apache.kafka.clients.consumer.internals.Fetcher.getTopicMetadata(Fetcher.java:200)
org.apache.kafka.clients.consumer.KafkaConsumer.partitionsFor(KafkaConsumer.java:1143)
org.apache.flink.streaming.connectors.kafka.internal.Kafka09PartitionDiscoverer.getAllPartitionsForTopics(Kafka09PartitionDiscoverer.java:75)
org.apache.flink.streaming.connectors.kafka.internals.AbstractPartitionDiscoverer.discoverPartitions(AbstractPartitionDiscoverer.java:128)
org.apache.flink.streaming.connectors.kafka.FlinkKafkaConsumerBase.open(FlinkKafkaConsumerBase.java:415)
org.apache.flink.api.common.functions.util.FunctionUtils.openFunction(FunctionUtils.java:36)
org.apache.flink.streaming.api.operators.AbstractUdfStreamOperator.open(AbstractUdfStreamOperator.java:102)
org.apache.flink.streaming.runtime.tasks.StreamTask.openAllOperators(StreamTask.java:393)
org.apache.flink.streaming.runtime.tasks.StreamTask.invoke(StreamTask.java:254)
org.apache.flink.runtime.taskmanager.Task.run(Task.java:718)
java.lang.Thread.run(Thread.java:748)

2018-01-14 06:25:01,728 WARN  org.apache.flink.runtime.taskmanager.Task                     - Task 'Source: Custom Source (8/8)' did not react to cancelling signal, but is stuck in method:
 sun.nio.ch.EPollArrayWrapper.epollWait(Native Method)
sun.nio.ch.EPollArrayWrapper.poll(EPollArrayWrapper.java:269)
sun.nio.ch.EPollSelectorImpl.doSelect(EPollSelectorImpl.java:93)
sun.nio.ch.SelectorImpl.lockAndDoSelect(SelectorImpl.java:86)
sun.nio.ch.SelectorImpl.select(SelectorImpl.java:97)
org.apache.kafka.common.network.Selector.select(Selector.java:425)
org.apache.kafka.common.network.Selector.poll(Selector.java:254)
org.apache.kafka.clients.NetworkClient.poll(NetworkClient.java:270)
org.apache.kafka.clients.consumer.internals.ConsumerNetworkClient.clientPoll(ConsumerNetworkClient.java:303)
org.apache.kafka.clients.consumer.internals.ConsumerNetworkClient.poll(ConsumerNetworkClient.java:197)
org.apache.kafka.clients.consumer.internals.ConsumerNetworkClient.poll(ConsumerNetworkClient.java:187)
org.apache.kafka.clients.consumer.internals.ConsumerNetworkClient.poll(ConsumerNetworkClient.java:157)
org.apache.kafka.clients.consumer.internals.Fetcher.getTopicMetadata(Fetcher.java:200)
org.apache.kafka.clients.consumer.KafkaConsumer.partitionsFor(KafkaConsumer.java:1143)
org.apache.flink.streaming.connectors.kafka.internal.Kafka09PartitionDiscoverer.getAllPartitionsForTopics(Kafka09PartitionDiscoverer.java:75)
org.apache.flink.streaming.connectors.kafka.internals.AbstractPartitionDiscoverer.discoverPartitions(AbstractPartitionDiscoverer.java:128)
org.apache.flink.streaming.connectors.kafka.FlinkKafkaConsumerBase.open(FlinkKafkaConsumerBase.java:415)
org.apache.flink.api.common.functions.util.FunctionUtils.openFunction(FunctionUtils.java:36)
org.apache.flink.streaming.api.operators.AbstractUdfStreamOperator.open(AbstractUdfStreamOperator.java:102)
org.apache.flink.streaming.runtime.tasks.StreamTask.openAllOperators(StreamTask.java:393)
org.apache.flink.streaming.runtime.tasks.StreamTask.invoke(StreamTask.java:254)
org.apache.flink.runtime.taskmanager.Task.run(Task.java:718)
java.lang.Thread.run(Thread.java:748)

2018-01-14 06:25:31,683 WARN  org.apache.flink.runtime.taskmanager.Task                     - Task 'Source: Custom Source (1/8)' did not react to cancelling signal, but is stuck in method:
 sun.nio.ch.EPollArrayWrapper.interrupt(Native Method)
sun.nio.ch.EPollArrayWrapper.interrupt(EPollArrayWrapper.java:317)
sun.nio.ch.EPollSelectorImpl.wakeup(EPollSelectorImpl.java:207)
java.nio.channels.spi.AbstractSelector$1.interrupt(AbstractSelector.java:213)
java.nio.channels.spi.AbstractSelector.begin(AbstractSelector.java:219)
sun.nio.ch.EPollSelectorImpl.doSelect(EPollSelectorImpl.java:92)
sun.nio.ch.SelectorImpl.lockAndDoSelect(SelectorImpl.java:86)
sun.nio.ch.SelectorImpl.select(SelectorImpl.java:97)
org.apache.kafka.common.network.Selector.select(Selector.java:425)
org.apache.kafka.common.network.Selector.poll(Selector.java:254)
org.apache.kafka.clients.NetworkClient.poll(NetworkClient.java:270)
org.apache.kafka.clients.consumer.internals.ConsumerNetworkClient.clientPoll(ConsumerNetworkClient.java:303)
org.apache.kafka.clients.consumer.internals.ConsumerNetworkClient.poll(ConsumerNetworkClient.java:197)
org.apache.kafka.clients.consumer.internals.ConsumerNetworkClient.poll(ConsumerNetworkClient.java:187)
org.apache.kafka.clients.consumer.internals.ConsumerNetworkClient.poll(ConsumerNetworkClient.java:157)
org.apache.kafka.clients.consumer.internals.Fetcher.getTopicMetadata(Fetcher.java:200)
org.apache.kafka.clients.consumer.KafkaConsumer.partitionsFor(KafkaConsumer.java:1143)
org.apache.flink.streaming.connectors.kafka.internal.Kafka09PartitionDiscoverer.getAllPartitionsForTopics(Kafka09PartitionDiscoverer.java:75)
org.apache.flink.streaming.connectors.kafka.internals.AbstractPartitionDiscoverer.discoverPartitions(AbstractPartitionDiscoverer.java:128)
org.apache.flink.streaming.connectors.kafka.FlinkKafkaConsumerBase.open(FlinkKafkaConsumerBase.java:415)
org.apache.flink.api.common.functions.util.FunctionUtils.openFunction(FunctionUtils.java:36)
org.apache.flink.streaming.api.operators.AbstractUdfStreamOperator.open(AbstractUdfStreamOperator.java:102)
org.apache.flink.streaming.runtime.tasks.StreamTask.openAllOperators(StreamTask.java:393)
org.apache.flink.streaming.runtime.tasks.StreamTask.invoke(StreamTask.java:254)
org.apache.flink.runtime.taskmanager.Task.run(Task.java:718)
java.lang.Thread.run(Thread.java:748)

2018-01-14 06:25:31,740 WARN  org.apache.flink.runtime.taskmanager.Task                     - Task 'Source: Custom Source (8/8)' did not react to cancelling signal, but is stuck in method:
 org.apache.kafka.common.metrics.stats.SampledStat.record(SampledStat.java:47)
org.apache.kafka.common.metrics.stats.Rate.record(Rate.java:56)
org.apache.kafka.common.metrics.Sensor.record(Sensor.java:103)
org.apache.kafka.common.network.Selector.poll(Selector.java:257)
org.apache.kafka.clients.NetworkClient.poll(NetworkClient.java:270)
org.apache.kafka.clients.consumer.internals.ConsumerNetworkClient.clientPoll(ConsumerNetworkClient.java:303)
org.apache.kafka.clients.consumer.internals.ConsumerNetworkClient.poll(ConsumerNetworkClient.java:197)
org.apache.kafka.clients.consumer.internals.ConsumerNetworkClient.poll(ConsumerNetworkClient.java:187)
org.apache.kafka.clients.consumer.internals.ConsumerNetworkClient.poll(ConsumerNetworkClient.java:157)
org.apache.kafka.clients.consumer.internals.Fetcher.getTopicMetadata(Fetcher.java:200)
org.apache.kafka.clients.consumer.KafkaConsumer.partitionsFor(KafkaConsumer.java:1143)
org.apache.flink.streaming.connectors.kafka.internal.Kafka09PartitionDiscoverer.getAllPartitionsForTopics(Kafka09PartitionDiscoverer.java:75)
org.apache.flink.streaming.connectors.kafka.internals.AbstractPartitionDiscoverer.discoverPartitions(AbstractPartitionDiscoverer.java:128)
org.apache.flink.streaming.connectors.kafka.FlinkKafkaConsumerBase.open(FlinkKafkaConsumerBase.java:415)
org.apache.flink.api.common.functions.util.FunctionUtils.openFunction(FunctionUtils.java:36)
org.apache.flink.streaming.api.operators.AbstractUdfStreamOperator.open(AbstractUdfStreamOperator.java:102)
org.apache.flink.streaming.runtime.tasks.StreamTask.openAllOperators(StreamTask.java:393)
org.apache.flink.streaming.runtime.tasks.StreamTask.invoke(StreamTask.java:254)
org.apache.flink.runtime.taskmanager.Task.run(Task.java:718)
java.lang.Thread.run(Thread.java:748)

2018-01-14 06:26:01,672 INFO  org.apache.flink.runtime.taskmanager.Task                     - Notifying TaskManager about fatal error. Task 'Source: Custom Source (1/8)' did not react to cancelling signal in the last 30 seconds, but is stuck in method:
 sun.nio.ch.IOUtil.drain(Native Method)
sun.nio.ch.EPollSelectorImpl.doSelect(EPollSelectorImpl.java:104)
sun.nio.ch.SelectorImpl.lockAndDoSelect(SelectorImpl.java:86)
sun.nio.ch.SelectorImpl.select(SelectorImpl.java:97)
org.apache.kafka.common.network.Selector.select(Selector.java:425)
org.apache.kafka.common.network.Selector.poll(Selector.java:254)
org.apache.kafka.clients.NetworkClient.poll(NetworkClient.java:270)
org.apache.kafka.clients.consumer.internals.ConsumerNetworkClient.clientPoll(ConsumerNetworkClient.java:303)
org.apache.kafka.clients.consumer.internals.ConsumerNetworkClient.poll(ConsumerNetworkClient.java:197)
org.apache.kafka.clients.consumer.internals.ConsumerNetworkClient.poll(ConsumerNetworkClient.java:187)
org.apache.kafka.clients.consumer.internals.ConsumerNetworkClient.poll(ConsumerNetworkClient.java:157)
org.apache.kafka.clients.consumer.internals.Fetcher.getTopicMetadata(Fetcher.java:200)
org.apache.kafka.clients.consumer.KafkaConsumer.partitionsFor(KafkaConsumer.java:1143)
org.apache.flink.streaming.connectors.kafka.internal.Kafka09PartitionDiscoverer.getAllPartitionsForTopics(Kafka09PartitionDiscoverer.java:75)
org.apache.flink.streaming.connectors.kafka.internals.AbstractPartitionDiscoverer.discoverPartitions(AbstractPartitionDiscoverer.java:128)
org.apache.flink.streaming.connectors.kafka.FlinkKafkaConsumerBase.open(FlinkKafkaConsumerBase.java:415)
org.apache.flink.api.common.functions.util.FunctionUtils.openFunction(FunctionUtils.java:36)
org.apache.flink.streaming.api.operators.AbstractUdfStreamOperator.open(AbstractUdfStreamOperator.java:102)
org.apache.flink.streaming.runtime.tasks.StreamTask.openAllOperators(StreamTask.java:393)
org.apache.flink.streaming.runtime.tasks.StreamTask.invoke(StreamTask.java:254)
org.apache.flink.runtime.taskmanager.Task.run(Task.java:718)
java.lang.Thread.run(Thread.java:748)
.
2018-01-14 06:26:01,681 ERROR org.apache.flink.runtime.taskmanager.TaskManager              - 
==============================================================
======================      FATAL      =======================
==============================================================

A fatal error occurred, forcing the TaskManager to shut down: Task 'Source: Custom Source (1/8)' did not react to cancelling signal in the last 30 seconds, but is stuck in method:
 sun.nio.ch.IOUtil.drain(Native Method)
sun.nio.ch.EPollSelectorImpl.doSelect(EPollSelectorImpl.java:104)
sun.nio.ch.SelectorImpl.lockAndDoSelect(SelectorImpl.java:86)
sun.nio.ch.SelectorImpl.select(SelectorImpl.java:97)
org.apache.kafka.common.network.Selector.select(Selector.java:425)
org.apache.kafka.common.network.Selector.poll(Selector.java:254)
org.apache.kafka.clients.NetworkClient.poll(NetworkClient.java:270)
org.apache.kafka.clients.consumer.internals.ConsumerNetworkClient.clientPoll(ConsumerNetworkClient.java:303)
org.apache.kafka.clients.consumer.internals.ConsumerNetworkClient.poll(ConsumerNetworkClient.java:197)
org.apache.kafka.clients.consumer.internals.ConsumerNetworkClient.poll(ConsumerNetworkClient.java:187)
org.apache.kafka.clients.consumer.internals.ConsumerNetworkClient.poll(ConsumerNetworkClient.java:157)
org.apache.kafka.clients.consumer.internals.Fetcher.getTopicMetadata(Fetcher.java:200)
org.apache.kafka.clients.consumer.KafkaConsumer.partitionsFor(KafkaConsumer.java:1143)
org.apache.flink.streaming.connectors.kafka.internal.Kafka09PartitionDiscoverer.getAllPartitionsForTopics(Kafka09PartitionDiscoverer.java:75)
org.apache.flink.streaming.connectors.kafka.internals.AbstractPartitionDiscoverer.discoverPartitions(AbstractPartitionDiscoverer.java:128)
org.apache.flink.streaming.connectors.kafka.FlinkKafkaConsumerBase.open(FlinkKafkaConsumerBase.java:415)
org.apache.flink.api.common.functions.util.FunctionUtils.openFunction(FunctionUtils.java:36)
org.apache.flink.streaming.api.operators.AbstractUdfStreamOperator.open(AbstractUdfStreamOperator.java:102)
org.apache.flink.streaming.runtime.tasks.StreamTask.openAllOperators(StreamTask.java:393)
org.apache.flink.streaming.runtime.tasks.StreamTask.invoke(StreamTask.java:254)
org.apache.flink.runtime.taskmanager.Task.run(Task.java:718)
java.lang.Thread.run(Thread.java:748)

2018-01-14 06:26:01,701 INFO  org.apache.flink.runtime.taskmanager.TaskManager              - Stopping TaskManager akka://flink/user/taskmanager#272493696.
2018-01-14 06:26:01,701 INFO  org.apache.flink.runtime.taskmanager.TaskManager              - Cancelling all computations and discarding all cached data.
2018-01-14 06:26:01,707 INFO  org.apache.flink.runtime.taskmanager.Task                     - Attempting to fail task externally Source: Custom Source (1/8) (5b3978010a11e195609a66a1a472b9e6).
2018-01-14 06:26:01,708 INFO  org.apache.flink.runtime.taskmanager.Task                     - Task Source: Custom Source (1/8) is already in state CANCELING
2018-01-14 06:26:01,708 INFO  org.apache.flink.runtime.taskmanager.Task                     - Attempting to fail task externally Source: Custom Source (8/8) (fd712a24f2cb8e9b1f5e5494bfd108d1).
2018-01-14 06:26:01,708 INFO  org.apache.flink.runtime.taskmanager.Task                     - Task Source: Custom Source (8/8) is already in state CANCELING
2018-01-14 06:26:01,708 INFO  org.apache.flink.runtime.taskmanager.TaskManager              - Disassociating from JobManager
2018-01-14 06:26:01,721 INFO  org.apache.flink.runtime.blob.PermanentBlobCache              - Shutting down BLOB cache
2018-01-14 06:26:01,733 INFO  org.apache.flink.runtime.blob.TransientBlobCache              - Shutting down BLOB cache
2018-01-14 06:26:01,742 INFO  org.apache.flink.runtime.taskmanager.Task                     - Notifying TaskManager about fatal error. Task 'Source: Custom Source (8/8)' did not react to cancelling signal in the last 30 seconds, but is stuck in method:
 sun.nio.ch.IOUtil.drain(Native Method)
sun.nio.ch.EPollSelectorImpl.doSelect(EPollSelectorImpl.java:104)
sun.nio.ch.SelectorImpl.lockAndDoSelect(SelectorImpl.java:86)
sun.nio.ch.SelectorImpl.select(SelectorImpl.java:97)
org.apache.kafka.common.network.Selector.select(Selector.java:425)
org.apache.kafka.common.network.Selector.poll(Selector.java:254)
org.apache.kafka.clients.NetworkClient.poll(NetworkClient.java:270)
org.apache.kafka.clients.consumer.internals.ConsumerNetworkClient.clientPoll(ConsumerNetworkClient.java:303)
org.apache.kafka.clients.consumer.internals.ConsumerNetworkClient.poll(ConsumerNetworkClient.java:197)
org.apache.kafka.clients.consumer.internals.ConsumerNetworkClient.poll(ConsumerNetworkClient.java:187)
org.apache.kafka.clients.consumer.internals.ConsumerNetworkClient.poll(ConsumerNetworkClient.java:157)
org.apache.kafka.clients.consumer.internals.Fetcher.getTopicMetadata(Fetcher.java:200)
org.apache.kafka.clients.consumer.KafkaConsumer.partitionsFor(KafkaConsumer.java:1143)
org.apache.flink.streaming.connectors.kafka.internal.Kafka09PartitionDiscoverer.getAllPartitionsForTopics(Kafka09PartitionDiscoverer.java:75)
org.apache.flink.streaming.connectors.kafka.internals.AbstractPartitionDiscoverer.discoverPartitions(AbstractPartitionDiscoverer.java:128)
org.apache.flink.streaming.connectors.kafka.FlinkKafkaConsumerBase.open(FlinkKafkaConsumerBase.java:415)
org.apache.flink.api.common.functions.util.FunctionUtils.openFunction(FunctionUtils.java:36)
org.apache.flink.streaming.api.operators.AbstractUdfStreamOperator.open(AbstractUdfStreamOperator.java:102)
org.apache.flink.streaming.runtime.tasks.StreamTask.openAllOperators(StreamTask.java:393)
org.apache.flink.streaming.runtime.tasks.StreamTask.invoke(StreamTask.java:254)
org.apache.flink.runtime.taskmanager.Task.run(Task.java:718)
java.lang.Thread.run(Thread.java:748)
.
2018-01-14 06:26:01,745 INFO  org.apache.flink.runtime.io.disk.iomanager.IOManager          - I/O manager removed spill file directory /tmp/flink-io-a1966ca4-becd-419d-b7ba-5f461dd7a362
2018-01-14 06:26:01,745 INFO  org.apache.flink.runtime.io.network.NetworkEnvironment        - Shutting down the network environment and its components.
2018-01-14 06:26:01,749 INFO  org.apache.flink.runtime.io.network.netty.NettyClient         - Successful shutdown (took 3 ms).
2018-01-14 06:26:01,750 INFO  org.apache.flink.runtime.io.network.netty.NettyServer         - Successful shutdown (took 1 ms).
2018-01-14 06:26:01,792 INFO  org.apache.flink.runtime.taskmanager.TaskManager              - Task manager akka://flink/user/taskmanager is completely shut down.
2018-01-14 06:26:01,802 ERROR org.apache.flink.runtime.taskmanager.TaskManager              - Actor akka://flink/user/taskmanager#272493696 terminated, stopping process...
